-------------------------------------------------------------------------------
Test set: com.mera.bank.api.CustomerDAOTest
-------------------------------------------------------------------------------
Tests run: 7, Failures: 0, Errors: 0, Skipped: 0, Time elapsed: 2.657 sec - in com.mera.bank.api.CustomerDAOTest
