E:\Users\david.mera\workspace\Prototype\bank-api\src\main\java\com\mera\bank\api\resources\CustomerResource.java
E:\Users\david.mera\workspace\Prototype\bank-api\src\main\java\com\mera\bank\api\persistence\dao\AbstractDAO.java
E:\Users\david.mera\workspace\Prototype\bank-api\src\main\java\com\mera\bank\api\resources\AccountResource.java
E:\Users\david.mera\workspace\Prototype\bank-api\src\main\java\com\mera\bank\api\BankApiApplication.java
E:\Users\david.mera\workspace\Prototype\bank-api\src\main\java\com\mera\bank\api\persistence\dao\MovementDAO.java
E:\Users\david.mera\workspace\Prototype\bank-api\src\main\java\com\mera\bank\api\utilities\GigaSpaceConfiguration.java
E:\Users\david.mera\workspace\Prototype\bank-api\src\main\java\com\mera\bank\api\persistence\dao\CustomerDAO.java
E:\Users\david.mera\workspace\Prototype\bank-api\src\main\java\com\mera\bank\api\persistence\dao\AccountDAO.java
E:\Users\david.mera\workspace\Prototype\bank-api\src\main\java\com\mera\bank\api\utilities\StringValidator.java
E:\Users\david.mera\workspace\Prototype\bank-api\src\main\java\com\mera\bank\api\services\BankService.java
E:\Users\david.mera\workspace\Prototype\bank-api\src\main\java\com\mera\bank\api\services\BankPersistenceServiceImpl.java
E:\Users\david.mera\workspace\Prototype\bank-api\src\main\java\com\mera\bank\api\persistence\util\QueryOperator.java
E:\Users\david.mera\workspace\Prototype\bank-api\src\main\java\com\mera\bank\api\resources\MovementResource.java
E:\Users\david.mera\workspace\Prototype\bank-api\src\main\java\com\mera\bank\api\BankApiConfiguration.java
E:\Users\david.mera\workspace\Prototype\bank-api\src\main\java\com\mera\bank\api\persistence\util\QueryFilterUtil.java
E:\Users\david.mera\workspace\Prototype\bank-api\src\main\java\com\mera\bank\api\services\BankSpaceServiceImpl.java
E:\Users\david.mera\workspace\Prototype\bank-api\src\main\java\com\mera\bank\api\persistence\util\SessionFactoryUtil.java
